  2.0802
  7.2021
 14.5486
 24.1536
 34.9782
 47.6188
 61.4698
 77.2774
 93.7147
112.4269
131.7853
152.4488
175.6035
198.7987
224.4064
252.8400
281.1591
311.4075
342.3320
374.5020
408.0823
443.6799
480.6391
519.3801
558.9494
600.3659
642.5993
687.8801
733.8663
781.6712
828.4338
879.7832
933.6758
984.6978
1038.2461
1091.8563
1149.3867
1207.5498
1265.9832
1326.4771
1386.2265
1450.3161
1514.2980
1582.3449
1654.2678
1725.4045
1798.1798
1869.8780
1942.4574
2021.2648
2096.5849
2174.6118
2252.2288
2332.4264
2417.3814
2501.7293
2588.8967
2678.0567
2770.5554
2858.8816
2951.7291
3044.5752
3141.5955
3236.1329
3333.9155
3429.8727
3529.3167
3631.3240
3726.0809
3827.2419
3927.2470
4033.3553
4138.4161
4245.6260
4351.6792
4460.0784
4574.2828
4684.3539
4792.7268
4905.9427
5023.3841
5139.4296
5265.0141
5389.9858
5509.2955
5626.9013
5745.1620
5868.5296
5998.6307
6123.6421
6249.0086
6374.1463
6509.1101
6637.1741
6762.1033
6893.4512
7019.9960
7149.5612
7288.0806
7432.1741
7571.7175
7707.7627
7846.6557
7988.1482
8134.2685
8280.4367
8423.2450
8571.1264
8723.0342
8873.5392
9020.0751
9171.1203
9318.7939
9468.2523
9620.4360
9780.5916
9934.0510
10094.1834
10258.7509
10417.5772
10575.3471
10744.5583
10905.3312
11065.8938
11237.2317
11398.0704
11570.9664
11738.3444
11909.5511
12075.9515
12241.1197
12415.9538
12590.9319
12755.7937
12929.4333
13111.2899
13287.9574
13467.9617
13648.9431
13831.0134
14017.6699
14198.5114
14383.6040
14577.9600
14759.0454
14939.5128
15129.1762
15316.2310
15507.2034
15698.2392
15892.0392
16081.1618
16278.5585
16475.6369
16681.7797
16881.4680
17082.4136
17284.6458
17486.2165
17688.9658
17895.6103
18103.4099
18318.1199
18519.0357
18725.3936
18939.1949
19159.0749
19380.3941
19594.1944
19813.8319
20029.0338
20257.3633
20489.8166
20713.0083
20928.7258
21153.6697
21374.4544
21597.9845
21825.3623
22040.3288
22269.4610
22487.5075
22725.0512
22952.1901
23191.1057
23430.9709
23677.0416
23918.4718
24146.2080
24392.9933
24617.4001
24870.3999
25106.2935
25350.2641
25587.8857
25830.2921
26083.4042
26334.9261
26586.5805
26832.4172
27077.2900
27321.9876
27561.1101
27821.3029
28071.6085
28330.1737
28584.2348
28847.9962
29112.9486
29372.7395
29646.3081
29907.3064
30178.0429
30442.6116
30710.3347
30984.3247
31244.2003
31513.6106
31797.8628
32048.2077
32317.2046
32583.4318
32852.6780
33124.7319
33400.2808
33667.2712
33935.8569
34211.8678
34480.3779
34764.0305
35045.2313
35329.7265
35614.3417
35905.8710
36198.3485
36483.8558
36764.9091
37066.6296
37339.7208
37623.2413
37906.7736
38191.7846
38482.6257
38771.8567
39066.1882
39348.8543
39638.0625
39948.2129
40249.2933
40549.9567
40837.7515
41138.5584
41449.2102
41757.2224
42076.1520
42388.1679
42697.9459
43015.6578
43336.3602
43643.8026
43955.9045
44284.7197
44592.0319
44896.5111
45213.5433
45519.4139
45837.3850
46165.3188
46487.7605
46798.5934
47122.8601
47436.7209
47758.9913
48093.1372
48407.9094
48737.2330
49062.2451
49399.8509
49722.0020
50086.3077
50432.9701
50767.3595
51104.5556
51460.8437
51790.1181
52122.5605
52463.7034
52805.6322
53146.7227
53504.2571
53860.9597
54202.1842
54539.3587
54891.3110
55263.0868
55622.1816
55971.4003
56322.7036
56690.2206
57060.3130
57424.4818
57789.8808
58144.0770
58512.7934
58880.0878
59241.6789
59592.6507
59968.0119
60340.6892
60703.7165
61056.0413
61462.6451
61827.6384
62211.0677
62578.9441
62952.3199
63318.7263
63679.6162
64051.1782
64449.5710
64874.2896
65275.2937
65659.7139
66057.5210
66434.6414
66819.2856
67207.8251
67616.4024
68015.7253
68421.5398
68802.2931
69210.3164
69583.1882
69974.6236
70362.9773
70769.2350
71178.8767
71566.5985
71959.1006
72349.4889
72750.8073
73154.7595
73561.2091
73985.3738
74405.7395
74800.6551
75198.0241
75612.1377
76041.2063
76446.8733
76877.0937
77298.2137
77702.3617
78129.9514
78568.5242
78987.0430
79412.7056
79837.6625
80266.2516
80714.5207
81167.6115
81611.3402
82041.8155
82516.4849
82924.8873
83370.3510
83816.8079
84238.2636
84667.7198
85135.3581
85596.5314
86070.8972
86523.4703
86966.0306
87413.6733
87896.5960
88344.5630
88804.1448
89252.5240
89749.9002
90181.5021
90651.1925
91105.0001
91533.1216
92016.4607
92485.2031
92943.6130
93407.4081
93891.0019
94375.6563
94843.5968
95296.5612
95770.5127
96226.3637
96715.7926
97201.3552
97664.0803
98124.1902
98602.8654
99087.8706
99581.9453
100071.1753
100567.2295
101045.1440
101528.5332
102009.9468
102488.8900
102978.7724
103460.8530
103960.6977
104497.5723
104996.7684
105510.0632
106019.8147
106512.2895
107022.7274
107516.6128
108011.5125
108501.0978
109023.0638
109537.9920
110071.6235
110577.7499
111098.1208
111618.0027
112124.4973
112657.4846
113168.7935
113708.3728
114229.2061
114746.1113
115305.0485
115802.9532
116346.8848
116876.4475
117400.4456
117975.3560
118502.9981
119037.2078
119550.3530
120079.4114
120606.9380
121159.0196
121695.0737
122229.2245
122774.0509
123315.3682
123868.2048
124410.4677
124946.1695
125480.3160
126039.3237
126591.6304
127133.1832
127686.5748
128244.8241
128818.2303
129396.9643
129944.5756
130479.0975
131033.4060
131576.5490
132159.3659
132707.6964
133289.8334
133901.4474
134468.5521
135037.2087
135594.2262
136162.0310
136734.0124
137261.3681
137875.9420
138451.2048
139046.6900
139627.2466
140221.9143
140817.0206
141393.3935
141970.7645
142580.0839
143192.7892
143781.6474
144393.5336
144997.3777
145620.6405
146235.2159
146865.3242
147469.3112
148060.0341
148696.5510
149350.7325
149981.0631
150596.3569
151207.6996
151822.6692
152464.5746
153099.7138
153732.7481
