  0.0370
  0.1317
  0.2467
  0.3721
  0.5024
  0.6358
  0.7462
  0.8725
  0.9589
  1.0536
  1.1173
  1.1810
  1.2436
  1.2852
  1.3483
  1.3874
  1.4645
  1.5096
  1.5721
  1.6142
  1.6260
  1.6447
  1.6621
  1.6892
  1.7327
  1.7649
  1.8105
  1.8438
  1.8996
  1.9355
  2.0218
  2.0733
  2.0999
  2.1402
  2.1733
  2.2023
  2.2369
  2.2648
  2.2859
  2.3101
  2.3510
  2.4014
  2.4261
  2.4515
  2.4824
  2.4871
  2.4824
  2.5089
  2.5544
  2.5866
  2.6041
  2.6410
  2.6618
  2.7047
  2.7113
  2.7362
  2.7794
  2.8067
  2.8231
  2.8343
  2.8366
  2.8390
  2.8439
  2.8841
  2.9364
  2.9544
  2.9768
  2.9841
  2.9864
  2.9935
  2.9826
  2.9935
  2.9954
  2.9850
  3.0006
  3.0182
  3.0633
  3.0729
  3.0713
  3.0936
  3.1027
  3.1263
  3.1644
  3.1613
  3.1960
  3.2168
  3.2249
  3.2416
  3.2438
  3.2982
  3.3039
  3.2858
  3.2752
  3.2967
  3.3199
  3.3530
  3.3553
  3.4015
  3.4103
  3.4110
  3.4239
  3.4332
  3.4487
  3.4742
  3.4937
  3.5036
  3.5161
  3.5099
  3.5290
  3.5449
  3.5573
  3.5675
  3.5727
  3.5740
  3.5928
  3.6044
  3.6601
  3.6789
  3.6688
  3.6973
  3.7046
  3.7095
  3.6885
  3.7017
  3.6980
  3.7142
  3.7391
  3.7374
  3.7621
  3.7484
  3.7619
  3.7525
  3.7571
  3.7676
  3.7686
  3.7992
  3.8065
  3.8115
  3.8677
  3.8556
  3.8313
  3.8253
  3.8196
  3.8222
  3.8577
  3.8608
  3.8625
  3.8686
  3.8578
  3.8550
  3.8289
  3.8455
  3.8610
  3.8780
  3.8666
  3.8702
  3.8715
  3.9048
  3.9085
  3.9006
  3.8885
  3.9110
  3.9294
  3.9155
  3.9259
  3.9682
  3.9550
  3.9702
  3.9990
  3.9997
  4.0289
  4.0783
  4.0766
  4.1090
  4.0720
  4.0740
  4.0724
  4.0999
  4.1238
  4.1092
  4.1063
  4.1190
  4.1348
  4.1319
  4.0733
  4.0695
  4.0695
  4.0990
  4.1218
  4.1398
  4.1704
  4.1664
  4.1392
  4.1635
  4.1592
  4.1574
  4.1451
  4.1553
  4.1661
  4.1837
  4.2050
  4.2294
  4.1969
  4.1885
  4.2031
  4.2032
  4.2008
  4.1933
  4.2011
  4.2058
  4.2315
  4.2508
  4.2406
  4.2430
  4.2510
  4.2348
  4.2625
  4.2547
  4.2615
  4.2797
  4.3041
  4.3155
  4.3035
  4.3228
  4.3233
  4.3225
  4.3006
  4.3109
  4.3126
  4.3337
  4.3409
  4.3738
  4.4061
  4.4456
  4.4635
  4.4730
  4.4722
  4.4764
  4.4577
  4.4599
  4.4640
  4.4865
  4.4894
  4.5118
  4.5154
  4.5102
  4.5192
  4.5684
  4.5900
  4.5984
  4.5991
  4.5806
  4.6071
  4.6093
  4.5914
  4.5973
  4.6229
  4.6140
  4.6113
  4.6145
  4.6141
  4.6319
  4.6256
  4.6265
  4.6454
  4.6368
  4.6280
  4.6137
  4.6683
  4.6841
  4.6932
  4.7331
  4.7568
  4.7590
  4.7382
  4.7385
  4.7349
  4.7482
  4.7397
  4.7574
  4.7589
  4.7530
  4.7886
  4.7913
  4.7806
  4.7760
  4.7987
  4.8326
  4.8103
  4.8299
  4.8579
  4.8828
  4.8675
  4.8652
  4.8950
  4.8441
  4.8357
  4.8773
  4.8807
  4.8824
  4.8933
  4.9098
  4.9371
  4.8823
  4.9021
  4.9230
  4.9388
  4.9769
  4.9543
  4.9683
  4.9765
  4.9573
  4.9968
  5.0017
  5.0059
  4.9800
  4.9972
  5.0088
  5.0049
  4.9979
  4.9854
  5.0067
  5.0602
  5.0417
  5.0431
  5.0443
  5.0386
  5.0221
  5.0045
  5.0116
  5.0160
  5.0192
  5.0351
  5.0426
  5.0403
  5.0133
  5.0123
  5.0685
  5.0893
  5.1007
  5.1057
  5.1182
  5.1288
  5.1666
  5.1273
  5.1020
  5.1003
  5.1188
  5.1245
  5.1752
  5.1658
  5.1627
  5.1818
  5.1848
  5.2037
  5.2376
  5.2319
  5.2543
  5.2603
  5.2691
  5.2972
  5.2755
  5.2454
  5.2524
  5.2380
  5.2447
  5.2635
  5.2788
  5.3031
  5.3533
  5.3265
  5.3535
  5.3630
  5.4090
  5.3532
  5.3282
  5.3549
  5.3254
  5.3132
  5.3171
  5.3887
  5.4159
  5.4100
  5.3800
  5.4311
  5.4596
  5.4817
  5.4681
  5.4674
  5.4745
  5.4909
  5.5428
  5.5077
  5.5256
  5.5324
  5.5490
  5.5504
  5.5847
  5.6188
  5.6185
  5.6236
  5.6297
  5.6379
  5.6625
  5.6678
  5.6948
  5.7300
  5.7586
  5.7675
  5.7764
  5.7866
  5.7847
  5.7925
  5.7813
  5.8162
  5.8170
  5.8696
  5.8482
  5.8685
  5.9245
  5.9262
  5.9463
  5.9681
  5.9979
  5.9925
  5.9998
  6.0311
  6.0553
  6.0413
  6.0515
  6.0781
  6.1145
  6.0960
  6.0646
  6.0944
  6.0848
  6.0957
  6.1301
  6.1034
  6.1439
  6.1596
  6.1073
  6.1206
  6.1585
  6.2027
  6.2014
  6.1941
  6.2028
  6.2395
  6.2179
  6.2369
  6.2581
  6.2766
  6.2748
  6.2374
  6.2521
  6.2867
  6.2786
  6.2917
  6.3794
  6.3901
  6.4485
  6.4752
  6.4923
  6.5157
  6.5362
  6.4969
  6.4885
  6.5006
  6.4990
  6.5307
  6.5432
  6.5357
  6.5639
  6.5777
  6.6031
  6.6112
  6.6119
  6.6165
  6.6260
  6.6159
  6.6075
  6.5856
  6.5833
  6.5625
  6.5887
  6.6069
  6.5768
  6.5662
  6.5824
  6.5645
  6.5590
  6.5624
  6.5782
  6.5757
  6.6010
  6.6242
  6.6403
  6.5969
