  0.0093
  0.0147
  0.0195
  0.0234
  0.0249
  0.0316
  0.0362
  0.0381
  0.0413
  0.0423
  0.0473
  0.0467
  0.0451
  0.0490
  0.0503
  0.0542
  0.0574
  0.0594
  0.0621
  0.0606
  0.0610
  0.0629
  0.0659
  0.0645
  0.0665
  0.0689
  0.0766
  0.0763
  0.0795
  0.0827
  0.0873
  0.0865
  0.0850
  0.0877
  0.0907
  0.0939
  0.0931
  0.0972
  0.0961
  0.0977
  0.0963
  0.0943
  0.0924
  0.0929
  0.0952
  0.0975
  0.0977
  0.1005
  0.1023
  0.1017
  0.1008
  0.1009
  0.1004
  0.0981
  0.0950
  0.0941
  0.0960
  0.0936
  0.0868
  0.0909
  0.0913
  0.0947
  0.0937
  0.0930
  0.0975
  0.0950
  0.0964
  0.1035
  0.1024
  0.1000
  0.0976
  0.1010
  0.0991
  0.0967
  0.0981
  0.1015
  0.0986
  0.0975
  0.1015
  0.0995
  0.1023
  0.0997
  0.1014
  0.1029
  0.0989
  0.0997
  0.1005
  0.1019
  0.1066
  0.1039
  0.1053
  0.1041
  0.1034
  0.1027
  0.1026
  0.1046
  0.1051
  0.1076
  0.1070
  0.1050
  0.1083
  0.1103
  0.1054
  0.1065
  0.1019
  0.1029
  0.1023
  0.1020
  0.1026
  0.1036
  0.1007
  0.1050
  0.1060
  0.1073
  0.1027
  0.1029
  0.1059
  0.1062
  0.1087
  0.1031
  0.1016
  0.1054
  0.1120
  0.1121
  0.1103
  0.1118
  0.1121
  0.1172
  0.1202
  0.1241
  0.1251
  0.1279
  0.1262
  0.1273
  0.1287
  0.1307
  0.1300
  0.1287
  0.1345
  0.1349
  0.1343
  0.1364
  0.1397
  0.1368
  0.1416
  0.1401
  0.1371
  0.1362
  0.1394
  0.1396
  0.1402
  0.1345
  0.1294
  0.1268
  0.1282
  0.1305
  0.1277
  0.1274
  0.1304
  0.1330
  0.1314
  0.1283
  0.1240
  0.1261
  0.1277
  0.1279
  0.1259
  0.1253
  0.1269
  0.1268
  0.1282
  0.1227
  0.1261
  0.1303
  0.1284
  0.1326
  0.1336
  0.1311
  0.1353
  0.1318
  0.1335
  0.1279
  0.1220
  0.1213
  0.1186
  0.1233
  0.1208
  0.1183
  0.1167
  0.1131
  0.1149
  0.1193
  0.1203
  0.1129
  0.1181
  0.1195
  0.1157
  0.1183
  0.1199
  0.1182
  0.1114
  0.1122
  0.1141
  0.1207
  0.1163
  0.1183
  0.1158
  0.1147
  0.1159
  0.1174
  0.1165
  0.1117
  0.1170
  0.1101
  0.1064
  0.1138
  0.1141
  0.1135
  0.1101
  0.1107
  0.1074
  0.1090
  0.1115
  0.1121
  0.1148
  0.1162
  0.1169
  0.1186
  0.1176
  0.1139
  0.1142
  0.1173
  0.1220
  0.1127
  0.1166
  0.1187
  0.1247
  0.1247
  0.1225
  0.1233
  0.1236
  0.1269
  0.1223
  0.1257
  0.1247
  0.1281
  0.1268
  0.1243
  0.1203
  0.1231
  0.1175
  0.1170
  0.1154
  0.1166
  0.1129
  0.1147
  0.1145
  0.1170
  0.1166
  0.1183
  0.1200
  0.1178
  0.1211
  0.1190
  0.1144
  0.1197
  0.1183
  0.1137
  0.1110
  0.1091
  0.1113
  0.1051
  0.1084
  0.1056
  0.1054
  0.1130
  0.1106
  0.1077
  0.1116
  0.1118
  0.1090
  0.1134
  0.1204
  0.1205
  0.1178
  0.1132
  0.1143
  0.1185
  0.1214
  0.1258
  0.1264
  0.1282
  0.1224
  0.1220
  0.1206
  0.1233
  0.1282
  0.1306
  0.1311
  0.1328
  0.1318
  0.1348
  0.1280
  0.1318
  0.1283
  0.1289
  0.1358
  0.1379
  0.1373
  0.1348
  0.1308
  0.1293
  0.1270
  0.1263
  0.1271
  0.1304
  0.1255
  0.1262
  0.1270
  0.1243
  0.1253
  0.1268
  0.1281
  0.1287
  0.1299
  0.1299
  0.1315
  0.1294
  0.1317
  0.1318
  0.1342
  0.1375
  0.1332
  0.1329
  0.1348
  0.1355
  0.1352
  0.1405
  0.1444
  0.1408
  0.1379
  0.1426
  0.1433
  0.1451
  0.1451
  0.1448
  0.1482
  0.1497
  0.1541
  0.1543
  0.1506
  0.1573
  0.1579
  0.1606
  0.1627
  0.1574
  0.1555
  0.1472
  0.1427
  0.1425
  0.1430
  0.1450
  0.1427
  0.1380
  0.1364
  0.1336
  0.1394
  0.1403
  0.1345
  0.1308
  0.1266
  0.1238
  0.1161
  0.1196
  0.1194
  0.1161
  0.1117
  0.1141
  0.1134
  0.1155
  0.1151
  0.1121
  0.1091
  0.1096
  0.1103
  0.1170
  0.1195
  0.1202
  0.1201
  0.1217
  0.1202
  0.1242
  0.1283
  0.1287
  0.1195
  0.1235
  0.1253
  0.1202
  0.1168
  0.1180
  0.1133
  0.1177
  0.1192
  0.1126
  0.1060
  0.1058
  0.1073
  0.1095
  0.1082
  0.1036
  0.1036
  0.1023
  0.1029
  0.1070
  0.1079
  0.1092
  0.1100
  0.1090
  0.1039
  0.1073
  0.1058
  0.1067
  0.1098
  0.1152
  0.1171
  0.1118
  0.1128
  0.1096
  0.1121
  0.1064
  0.1083
  0.1054
  0.1060
  0.1127
  0.1130
  0.1097
  0.1078
  0.1063
  0.0986
  0.1047
  0.1022
  0.1044
  0.1045
  0.1088
  0.1096
  0.1109
  0.1133
  0.1148
  0.1143
  0.1130
  0.1100
  0.1114
  0.1115
  0.1110
  0.1097
  0.1083
  0.1097
  0.1059
  0.1093
  0.1059
  0.1023
  0.1011
  0.0983
  0.0951
  0.0973
  0.0957
  0.0982
  0.0956
  0.1039
  0.0986
  0.0959
  0.0961
  0.0963
  0.0993
  0.1018
  0.1044
  0.1051
  0.0983
  0.1009
  0.1066
  0.1086
  0.1093
  0.1028
  0.1030
  0.1040
  0.1064
  0.1086
  0.1095
  0.1065
  0.1089
  0.1045
  0.1066
  0.1080
  0.1100
  0.1128
  0.1130
  0.1138
  0.1178
  0.1177
