  1.7828
  6.2519
 12.5618
 20.4107
 29.4008
 39.1829
 49.7514
 61.1886
 73.2286
 85.8363
 99.0494
112.7805
126.9204
141.6721
156.8489
172.3235
188.0205
203.6950
219.9727
237.0010
254.3940
272.7196
292.1982
311.4984
330.4124
350.4222
370.5278
390.8034
410.8606
430.3680
449.2380
469.1643
488.7351
507.8990
525.7371
543.7519
561.3496
579.4697
598.4381
618.3884
639.2191
661.6028
684.7399
706.7998
728.4731
750.0595
770.8066
792.2910
813.5397
835.9749
859.1834
881.7962
904.5920
929.0772
953.6573
978.7408
1003.8220
1028.7528
1054.1101
1078.7172
1105.0761
1130.5151
1156.7612
1182.2155
1207.2926
1233.8460
1260.3889
1285.7805
1311.5395
1339.2883
1367.9005
1395.5622
1423.0660
1449.8233
1477.9078
1505.1375
1531.0840
1557.6744
1584.7186
1611.8061
1638.8896
1667.2691
1693.6883
1719.6306
1746.9509
1772.6319
1798.6443
1823.8656
1850.7675
1878.9799
1908.4999
1937.5906
1966.4431
1996.0123
2027.1946
2058.7410
2089.1728
2115.5427
2139.5157
2161.5093
2183.7868
2206.8662
2232.4941
2257.2936
2281.6355
2303.4945
2327.3568
2349.4592
2369.7943
2390.2708
2414.1172
2437.0169
2462.4992
2489.5561
2514.9018
2541.1537
2570.0080
2597.8909
2624.0971
2649.2008
2674.0523
2699.3783
2723.4246
2746.0714
2766.7224
2787.0778
2806.3986
2826.4840
2844.7533
2863.4466
2883.7176
2905.6183
2923.6895
2940.1201
2960.2016
2977.0973
2994.3294
3010.5555
3026.9123
3046.0794
3063.5966
3084.1192
3101.0613
3115.2439
3126.9748
3137.8083
3146.9859
3156.8040
3166.5327
3177.8254
3193.6319
3211.5259
3225.5741
3241.8220
3256.9063
3271.6490
3288.6477
3306.4122
3322.9494
3337.0182
3349.6620
3361.6258
3375.1395
3387.9709
3402.4124
3420.3645
3438.4976
3451.8179
3467.1680
3482.7279
3496.4515
3510.7320
3528.0158
3545.9401
3563.2591
3578.5417
3594.2593
3611.9180
3629.1700
3644.7027
3665.0990
3685.3525
3709.4202
3735.4844
3763.3739
3791.1969
3819.8820
3851.4752
3880.9388
3911.7026
3942.8392
3976.0977
4011.8913
4047.5319
4081.4985
4113.6997
4146.1073
4176.2799
4206.0772
4232.7027
4261.3609
4291.0391
4320.5245
4349.5270
4378.2556
4404.6887
4431.2717
4455.3810
4480.6176
4506.4151
4532.3543
4560.9140
4588.1046
4612.0460
4636.1347
4662.1135
4685.9994
4709.9470
4733.6500
4757.2970
4780.9634
4803.3352
4824.6334
4847.5885
4873.1553
4897.9700
4922.5000
4946.3105
4963.1850
4983.4240
5001.3532
5017.1504
5032.6530
5047.0544
5061.7557
5078.6654
5094.4842
5109.9531
5128.0334
5146.6847
5162.1692
5177.0552
5192.9441
5209.4589
5226.2513
5241.6936
5259.3067
5281.4470
5305.3688
5330.4438
5355.7587
5381.4630
5408.9780
5435.6501
5459.1640
5481.4605
5505.4680
5525.9342
5542.4479
5559.0129
5578.7823
5599.3036
5617.7619
5635.0928
5653.0371
5673.0599
5691.0952
5712.7559
5730.4959
5742.0945
5754.3857
5770.9773
5790.8771
5807.0248
5826.5400
5848.8816
5870.6779
5894.0855
5912.3025
5934.0531
5956.4743
5978.3993
5999.4472
6026.1407
6053.7203
6083.2985
6113.5507
6143.5634
6176.6396
6207.6103
6234.5293
6260.6909
6282.7322
6302.9611
6320.4359
6335.6874
6352.0665
6371.0277
6387.2835
6408.5338
6428.3343
6446.2324
6462.2304
6484.0158
6505.7169
6523.3501
6540.1586
6560.6998
6584.3550
6607.6456
6639.1300
6669.2160
6695.7296
6721.0932
6746.9470
6776.5821
6799.4687
6821.2016
6842.1705
6861.0397
6882.7431
6904.2061
6925.3146
6947.9067
6972.7538
7001.7581
7029.8375
7052.3244
7081.0172
7110.4382
7140.4927
7168.7880
7191.1125
7211.6830
7229.3001
7251.1695
7271.5256
7293.7708
7316.5260
7337.6723
7359.9163
7382.7380
7402.3303
7417.6388
7442.4224
7465.9597
7487.9491
7509.6002
7530.2801
7553.2164
7571.9025
7596.1303
7621.1224
7644.7233
7663.7795
7686.9547
7715.8830
7744.8975
7776.8378
7811.6021
7840.1390
7870.5774
7909.7853
7942.2087
7970.4902
8004.4704
8041.1355
8075.5923
8107.3388
8140.1622
8173.4684
8209.7450
8241.1421
8270.7650
8295.9621
8319.3076
8344.6264
8368.2158
8396.7900
8423.7090
8448.7468
8475.3058
8500.6032
8526.0257
8548.0214
8571.7670
8598.0091
8619.2281
8643.2540
8664.6976
8683.9625
8698.2707
8715.0593
8733.7750
8750.4109
8761.1392
8774.9025
8786.3141
8800.0525
8811.6731
8823.6213
8835.5877
8844.1970
8853.1448
8863.0177
8876.4295
8884.8097
8889.4380
8894.4246
8900.1592
8903.0595
8907.6521
8919.9942
8928.0476
8933.1164
8942.7222
8954.1766
8967.1122
8983.5600
8996.3015
9010.0788
9024.2658
9035.2523
9049.5168
9063.0878
9078.2428
9092.5980
9102.2941
9112.0696
9121.8234
9130.1243
9142.7353
9152.1012
9161.2121
9171.1883
9177.9661
9182.6588
9192.8814
9206.2609
9219.4950
9229.5052
9244.4639
9260.3858
9271.8713
9287.8839
9298.0107
9310.6126
9323.4060
9335.5166
9352.9639
9367.8063
9380.4764
9395.3571
9414.3768
9436.5438
9457.1120
9481.8900
9507.4713
9528.0110
9550.8189
9571.7677
9591.6966
9614.7061
9637.5553
9662.8931
9685.4056
9704.3981
9720.4158
9738.2926
9758.9635
9779.6389
9797.5392
9816.7234
9837.6332
9856.2098
9876.0426
9896.8248
9914.2343
9936.3728
9961.5049
9986.0854
10012.0293
10034.6112
10061.3683
10089.3202
10110.2366
10133.1163
10150.4265
10173.4567
10196.0929
10221.6399
10240.2371
10255.6830
10271.7045
10289.2868
10302.7159
10315.1714
10325.4349
10336.4351
