  1.0000
  3.7367
  7.9943
 13.6931
 20.7011
 28.5675
 37.4395
 47.1594
 57.6336
 68.6839
 80.2798
 92.4821
105.0157
117.9417
130.7494
143.8265
157.2322
171.1428
185.3318
199.7707
214.2546
229.1310
244.5108
260.2093
275.5409
290.6216
305.3737
319.6776
334.1718
348.0497
361.6166
376.2099
390.9740
405.8777
420.5149
435.4151
450.6948
465.9911
481.3713
496.6332
511.8517
526.8692
542.4669
557.1182
571.7478
586.2796
600.6299
614.1146
626.8856
640.9192
653.7020
667.5507
682.4412
699.1126
716.3081
733.4994
750.4150
768.3954
785.1920
801.4683
817.6925
832.6515
847.5971
861.8824
876.5620
892.6375
908.9832
925.8340
942.9945
960.5748
977.6980
994.5374
1010.6859
1027.7161
1046.2788
1065.0267
1083.4171
1101.9536
1118.6762
1136.4819
1154.1293
1171.9242
1188.2243
1204.3172
1220.2651
1237.7669
1256.5572
1275.2605
1292.7489
1309.4810
1325.7583
1342.2392
1357.8116
1374.8137
1393.3209
1412.1008
1431.6891
1451.1826
1469.9693
1487.3991
1504.1033
1521.5538
1542.0077
1562.0077
1581.8225
1601.9220
1620.9358
1639.2543
1658.3046
1676.4599
1695.4706
1712.1155
1728.4568
1744.2996
1758.7043
1772.6277
1787.7889
1805.9390
1822.7574
1838.5603
1854.5115
1873.0145
1890.0709
1906.9194
1923.7170
1938.6061
1953.8465
1970.6671
1987.0856
2003.2236
2019.5416
2038.9158
2058.4878
2077.5505
2097.1161
2117.3331
2136.3847
2156.5005
2174.1301
2191.5075
2208.4161
2222.6338
2236.8478
2249.2790
2261.5191
2275.3304
2289.3521
2304.7997
2319.2432
2333.7975
2350.3841
2365.3222
2380.1064
2395.5148
2413.1433
2429.1568
2447.7113
2464.4325
2482.5053
2500.3203
2515.1547
2530.4425
2544.3587
2558.0600
2574.3722
2590.7485
2608.0769
2624.1142
2639.8009
2655.5205
2669.9319
2684.8336
2695.9830
2708.6572
2722.5294
2737.1728
2752.5541
2769.5143
2786.9634
2802.3858
2817.0222
2833.6255
2848.0941
2860.2365
2872.6653
2885.5286
2899.8829
2914.3306
2931.1196
2945.6830
2963.6818
2979.8005
2999.4179
3018.3367
3037.0481
3054.5603
3072.3167
3089.4200
3106.2754
3123.2062
3141.1055
3158.6688
3176.5569
3193.9725
3212.7914
3230.9546
3251.3722
3270.8744
3289.1065
3305.9595
3321.8681
3338.8695
3354.1338
3371.6963
3391.7124
3409.5115
3425.8333
3443.5149
3458.3605
3473.4672
3488.7704
3501.9149
3517.0077
3532.8097
3547.6594
3558.7687
3572.4298
3587.0627
3601.6024
3615.3944
3628.4219
3640.3169
3653.1952
3665.0125
3679.6369
3693.4189
3709.1024
3723.4587
3738.2274
3755.4077
3774.1148
3789.7449
3804.9639
3821.2104
3834.5307
3847.4203
3858.7262
3873.6266
3888.2750
3904.3967
3919.8009
3937.8642
3953.9597
3970.3095
3985.1905
3998.2669
4012.1460
4026.4181
4037.8878
4049.0873
4063.0230
4077.9452
4093.7910
4108.7329
4125.8522
4144.7561
4163.0028
4180.8983
4196.4618
4213.7098
4231.1234
4250.0859
4268.6116
4285.9975
4305.1983
4324.0239
4342.4415
4361.1230
4380.7364
4398.9121
4419.1720
4437.0157
4451.3862
4468.3615
4486.9653
4505.5693
4527.2288
4548.5885
4570.4206
4590.2471
4609.0191
4628.6867
4650.9880
4673.1455
4688.1473
4702.0257
4716.2576
4730.0943
4743.1838
4754.8409
4768.3892
4781.5457
4791.3538
4803.7922
4818.1910
4835.4816
4850.6245
4862.6406
4873.5963
4887.0802
4905.3543
4918.8658
4935.7297
4950.4131
4968.2261
4989.3802
5011.4351
5029.6384
5044.8369
5061.9767
5079.9263
5100.1385
5117.0481
5136.1321
5155.3815
5179.3203
5199.8257
5221.2876
5241.2916
5258.7597
5278.7545
5299.2291
5319.0973
5336.5187
5355.2520
5372.7013
5391.6193
5408.6171
5426.4347
5442.4812
5455.5334
5468.8720
5481.0565
5495.5316
5511.5478
5522.5147
5532.7332
5547.2279
5564.3825
5581.7930
5599.1096
5615.8543
5637.6962
5660.5527
5682.0140
5704.7515
5723.2231
5741.9520
5760.4017
5780.8240
5799.4349
5815.0840
5833.3506
5852.3664
5869.4667
5886.6459
5906.2288
5926.6608
5948.2011
5970.1849
5994.6828
6017.1038
6036.1509
6053.7940
6067.4642
6080.7486
6095.4114
6107.7189
6115.5993
6124.0853
6131.9429
6140.8951
6153.9352
6169.5175
6187.0888
6202.2376
6220.7900
6236.3260
6252.6762
6268.1490
6279.3059
6290.5864
6302.7672
6317.5203
6332.3650
6348.4053
6361.1747
6372.5164
6385.5234
6397.6548
6415.4827
6435.2052
6456.0964
6475.2348
6493.7978
6515.2596
6535.5830
6555.6766
6573.0498
6590.5510
6613.3608
6635.8408
6655.8447
6679.1400
6698.5134
6717.8483
6738.2096
6759.4404
6781.4192
6805.9749
6829.9945
6853.7995
6880.1081
6902.6901
6926.3500
6950.5159
6968.2099
6986.6051
7003.8180
7021.8420
7038.6809
7053.8412
7066.7707
7078.8558
7094.0061
7107.7879
7121.5057
7136.1438
7151.9219
7165.6229
7181.5108
7198.7390
7213.0715
7230.6759
7253.1786
7273.5879
7292.8787
7310.5953
7331.8328
7350.5835
7367.7322
7385.3270
7405.4066
7425.1971
7446.1081
7465.2954
7484.3620
7505.1285
7524.5197
7546.5600
7570.2819
7596.0592
7616.0702
7634.0674
7652.6787
7672.1634
7691.4007
7709.7641
7729.9320
7743.7758
7757.8989
7769.4262
7783.1267
7797.8180
7811.4330
7828.2571
7844.7586
7867.4316
7884.7219
7899.6806
7918.6120
7940.2433
7963.2053
7987.2045
8010.4774
8034.4745
8056.6466
8081.0159
8103.6247
8132.1768
8158.9116
8186.5575
8213.3497
8240.2732
8270.7802
8299.2552
8324.4883
8348.9042
8376.3101
