  1.7338
  6.3760
 13.4306
 22.6015
 33.6625
 46.5833
 61.3036
 77.7974
 96.1423
116.2851
138.2166
161.9589
187.4833
214.8401
244.0850
275.1773
308.0765
342.8977
379.5577
418.1895
458.7730
501.1846
545.4437
591.5014
639.5605
689.4213
741.1285
794.7099
850.2302
907.7281
967.1188
1028.4332
1091.5931
1156.7772
1223.8498
1292.7445
1363.5502
1436.1783
1510.6735
1587.1165
1665.3738
1745.5010
1827.6055
1911.5158
1997.4683
2085.3003
2174.8916
2266.1026
2359.2175
2454.3452
2551.3008
2650.0001
2750.7352
2853.4105
2957.9936
3064.3843
3172.5524
3282.5652
3394.3704
3508.1403
3623.7095
3741.1125
3860.7460
3982.2832
4105.6466
4230.7770
4357.5542
4486.3513
4617.0047
4749.4897
4883.7896
5020.1738
5158.6512
5299.2797
5441.7452
5585.9705
5732.2499
5880.2578
6030.1349
6181.6483
6334.9645
6489.9986
6647.0372
6806.3118
6967.3648
7130.2146
7294.8104
7461.0576
7629.3009
7799.4236
7971.1662
8144.6977
8320.1031
8497.6312
8677.2526
8858.6714
9042.0843
9227.3541
9414.5154
9603.5121
9794.4769
9986.9696
10181.5736
10378.3480
10576.9123
10777.2492
10979.2752
11183.0159
11388.4423
11595.2702
11804.1730
12015.0259
12227.7070
12442.2274
12658.3161
12876.3919
13095.8763
13317.3844
13540.6669
13766.3543
13994.1339
14223.6017
14454.6282
14687.4574
14922.2801
15158.0568
15395.7261
15635.0803
15875.9862
16119.1434
16364.0115
16611.1534
16859.4780
17109.5080
17361.2889
17614.5457
17868.9493
18125.4063
18383.6462
18644.3105
18905.8194
19169.8251
19436.1656
19704.3191
19974.0031
20245.3735
20517.9110
20792.7169
21068.4397
21346.0503
21625.4483
21906.7449
22190.1532
22475.3006
22762.1095
23050.7679
23340.9426
23633.1836
23927.1809
24223.1113
24520.5056
24819.5782
25120.3577
25422.7209
25726.7977
26032.4182
26339.8670
26649.0752
26960.1193
27273.0264
27588.4969
27905.7859
28225.1702
28547.4691
28871.5767
29197.7884
29525.6564
29855.0078
30186.2108
30519.0362
30854.2207
31191.0718
31529.2344
31870.0811
32213.0431
32557.1868
32902.8338
33249.6012
33598.6659
33948.7944
34301.4479
34655.7410
35011.0774
35368.5395
35727.5937
36089.0326
36452.5582
36817.5087
37184.6284
37553.9466
37925.4190
38299.0915
38673.5066
39050.1324
39428.3973
39809.3366
40191.5950
40575.5563
40961.9020
41350.1504
41740.0943
42132.5780
42526.4411
42922.5596
43320.9651
43721.0621
44122.9746
44526.5238
44931.1526
45337.5614
45745.8669
46154.2809
46565.0814
46977.3938
47391.1534
47806.3599
48224.0498
48643.2767
49063.8037
49486.0366
49910.0372
50334.9858
50761.7845
51190.1371
51620.8632
52051.7381
52484.2027
52917.4622
53352.2496
53790.1328
54229.5777
54671.6733
55116.5407
55563.8436
56011.7362
56460.9681
56913.1574
57366.7443
57820.9944
58277.1719
58735.4765
59195.2526
59656.5561
60120.3318
60586.1635
61054.0578
61523.2143
61995.0416
62467.5225
62942.2134
63419.6773
63899.2194
64380.6112
64863.7400
65348.7323
65835.8937
66325.2559
66815.8803
67307.3935
67800.7544
68294.6593
68789.0285
69284.7044
69782.5296
70280.6421
70780.9687
71285.4156
71790.9269
72298.1323
72808.2150
73318.4727
73829.3823
74342.2411
74856.8868
75373.9263
75893.2610
76414.7509
76936.6274
77461.0571
77986.6769
78514.1088
79043.0911
79573.8192
80107.0579
80643.5209
81181.9979
81722.5430
82265.2335
82809.9168
83357.5781
83907.2757
84460.3455
85013.9879
85569.8621
86128.2364
86688.8774
87250.6761
87814.8540
88379.9809
88947.0231
89515.3451
90085.0086
90656.0645
91230.5536
91806.4977
92383.6306
92962.4425
93543.2700
94125.5665
94710.8178
95299.3742
95890.8526
96485.2845
97080.8588
97677.3748
98276.3177
98876.6868
99479.2108
100083.3764
100689.6592
101299.8461
101912.1966
102526.1296
103142.6721
103762.2192
104384.1446
105007.4547
105632.4441
106259.9199
106888.3240
107519.3516
108153.1208
108788.5508
109425.6597
110063.2951
110703.2663
111344.3766
111987.6149
112632.8634
113278.3259
113925.4607
114574.5309
115225.0106
115877.1945
116530.9999
117186.7711
117842.6404
118500.6133
119161.1022
119824.4543
120489.2974
121155.0544
121821.7064
122490.9418
123161.8638
123834.1040
124508.3916
125184.9564
125864.3772
126546.0187
127229.5395
127915.5186
128603.1494
129292.6630
129983.6955
130677.1370
131371.6195
132068.9147
132768.6527
133469.8508
134172.8498
134876.6216
135582.7734
136288.9623
136996.8718
137706.1101
138417.3124
139130.6275
139847.4835
140564.9022
141284.8975
142008.5863
142732.3213
143459.1065
144186.9167
144917.5768
145650.4479
146383.0738
147117.6031
147852.7168
148590.6926
149330.8968
150071.4284
150814.9220
151561.5340
152309.6265
153060.0528
153812.0758
154565.6086
155319.3980
156073.7751
156833.6717
157596.3866
158361.2852
159127.1960
159894.2185
160662.8655
161434.3715
162207.7265
162983.2422
163760.0068
164537.9228
165318.1144
166098.5411
166881.7213
167666.8798
168454.8184
169245.6593
170039.2117
170835.6407
171633.9314
172431.7911
173231.8141
174034.2923
174839.0473
175645.1228
176451.5921
177258.0852
178067.9972
178879.6416
179693.3632
180508.8074
181326.6981
182146.4990
182968.1432
183791.4018
184615.2174
185441.0546
186270.1662
187101.0025
187933.5718
188768.4948
189605.4521
190445.4702
191287.1666
192131.8049
192976.6745
193823.3637
194672.1220
195522.5013
196373.9340
197227.2702
198083.0407
198939.5566
199798.6349
200659.8552
201522.7062
202387.2457
203253.0076
204121.9979
204992.5488
205865.7811
206741.6469
207617.0759
208494.5991
209373.6840
210254.0310
211137.7287
212023.4779
212911.0905
213801.8595
214692.8443
215585.1272
216479.0391
217373.6640
218271.5531
219171.7587
220074.3157
220977.4563
221880.7011
222784.2139
223688.7988
224595.7718
225504.9495
226415.8728
227329.7983
228244.9603
229163.2409
230082.7565
