  1.7792
  6.2900
 12.7336
 20.7987
 30.1286
 40.4211
 51.6449
 63.8673
 76.8495
 90.5711
105.0324
120.2358
136.0389
152.5866
169.7457
187.3652
205.3921
223.6836
243.0261
263.3110
284.0505
305.9810
329.1919
352.6081
375.8745
400.4036
425.3067
450.4575
475.5145
500.2608
524.5205
549.9700
575.1720
600.6196
625.1679
650.2231
675.1110
700.3881
726.4429
753.4563
782.1661
812.3076
842.8425
871.6238
899.9940
928.9110
957.4414
986.6174
1015.9652
1046.6641
1078.8007
1111.0936
1143.9424
1178.7483
1213.6148
1248.5631
1284.0034
1319.0521
1356.2902
1392.7273
1430.3570
1467.1312
1505.6313
1543.8282
1580.4964
1617.5379
1654.5472
1690.3658
1728.1819
1766.1958
1805.4728
1844.7628
1883.4002
1921.5289
1960.0477
1997.3056
2034.1627
2070.4965
2106.9943
2143.7207
2180.2651
2216.2888
2250.5765
2284.4633
2317.0963
2350.3385
2382.3933
2413.7262
2445.3729
2477.1516
2510.8891
2544.7441
2579.8782
2614.9685
2653.3040
2694.0090
2735.1165
2773.6362
2814.0620
2853.3024
2891.0835
2931.1965
2973.1881
3015.0304
3057.7791
3102.2110
3146.1454
3189.6555
3231.8832
3276.5429
3323.6231
3369.9551
3416.8502
3463.2423
3512.0916
3558.1765
3604.9988
3649.8699
3694.1580
3737.3627
3781.6301
3825.6583
3868.9767
3913.6588
3958.0049
4001.2117
4044.3016
4087.7166
4133.0304
4177.8971
4221.3238
4265.7688
4306.3572
4346.2975
4386.1648
4426.5175
4465.5918
4505.4924
4544.0969
4581.0223
4616.5848
4648.9815
4680.1861
4708.9481
4733.3477
4760.1609
4789.0907
4817.3255
4846.0447
4878.4572
4917.3699
4958.3913
4998.7264
5040.3034
5085.2059
5128.1235
5172.0272
5213.1877
5256.9174
5301.4257
5341.9527
5385.4064
5428.7824
5471.3515
5514.3071
5555.8757
5598.4525
5640.5351
5681.3655
5721.0515
5762.5427
5806.7153
5854.0816
5898.6095
5940.2172
5984.4379
6028.2743
6071.9374
6112.8300
6149.8351
6190.0969
6230.9988
6270.0240
6309.8183
6351.0590
6391.8731
6427.8018
6464.8633
6498.5716
6530.2803
6565.0978
6604.2861
6646.6654
6687.8727
6726.8544
6763.2333
6800.8293
6836.4156
6874.0466
6909.9387
6944.8972
6982.4509
7016.5738
7051.9316
7086.6740
7121.1767
7161.1842
7200.6736
7242.2586
7280.3487
7322.6368
7365.6403
7410.6290
7453.5741
7497.3812
7543.0423
7594.8985
7641.4979
7686.1675
7735.0542
7787.3779
7839.5572
7889.8663
7940.9280
7995.1455
8050.9541
8105.5163
8162.8117
8213.9566
8262.9104
8310.4256
8352.7024
8398.5361
8445.9727
8490.4793
8537.9679
8587.1710
8638.4891
8689.1043
8741.3511
8792.8983
8845.7777
8894.7678
8945.4698
8999.9389
9053.2855
9103.7128
9155.2618
9206.7935
9260.2065
9312.0672
9366.0105
9417.3527
9461.6179
9508.2434
9556.6862
9604.4873
9657.7965
9707.5626
9752.9593
9796.9674
9839.3019
9882.7182
9929.2134
9978.7423
10025.6452
10074.8812
10123.3736
10173.3459
10221.5062
10276.2864
10337.6011
10398.7096
10455.7048
10511.5343
10567.2184
10623.7555
10679.3925
10736.9432
10795.5039
10848.3622
10901.8965
10949.0249
10999.9429
11049.9153
11099.4903
11153.5875
11206.7050
11266.9622
11322.5062
11373.0841
11419.0443
11461.6393
11502.6683
11543.9803
11591.5278
11633.7740
11674.1462
11711.3776
11751.1881
11788.7301
11828.8028
11870.7631
11911.6737
11949.8394
11994.3212
12038.8467
12082.4364
12129.3952
12174.8406
12222.7158
12273.9665
12325.7967
12377.4814
12428.6669
12479.7804
12530.4398
12576.8200
12623.4987
12664.6282
12707.3448
12754.0388
12802.5640
12843.6883
12890.5251
12940.5668
12989.2655
13033.5052
13080.1154
13124.3144
13166.0137
13206.6995
13252.9542
13304.3380
13362.8753
13421.3040
13481.9626
13538.3090
13594.5559
13648.4960
13700.4511
13752.6873
13800.6203
13847.6018
13902.5727
13954.8239
14005.3873
14058.4308
14104.0469
14154.8991
14203.5651
14255.8382
14309.7873
14364.6824
14415.0194
14470.2072
14524.7280
14580.7860
14638.6810
14700.2834
14763.3384
14827.5163
14893.9807
14961.5422
15023.6759
15091.1162
15151.5937
15211.3498
15274.4445
15335.0506
15397.0538
15459.4328
15518.4578
15573.1651
15630.0086
15687.9929
15741.8802
15796.4032
15854.4864
15905.0392
15955.1325
16010.0642
16062.4406
16118.8554
16176.9661
16236.2076
16295.5737
16355.4017
16416.5947
16476.0065
16535.5565
16596.3981
16658.7442
16724.2946
16789.2998
16855.4810
16919.2855
16977.9249
17036.2564
17097.2117
17157.9079
17222.5695
17285.2206
17344.5160
17406.3914
17467.7972
17529.6750
17592.1445
17655.3248
17722.5424
17783.4055
17845.6996
17904.1428
17957.1235
18013.7268
18062.5729
18112.4938
18164.1847
18213.8007
18270.9016
18325.6181
18378.4243
18430.6077
18479.9128
18536.9791
18594.9491
18659.9603
18720.1647
18778.1297
18831.6707
18886.8468
18941.3176
18994.6221
19049.9772
19111.9399
19173.2238
19234.7088
19291.7273
19347.9887
19403.2618
19457.7941
19513.3179
19569.5037
19629.1368
19691.1046
19753.3580
19808.9663
19870.8180
19934.3633
20001.1167
20068.8694
20138.0694
20205.5520
20274.9907
20343.5972
20408.1388
20474.4469
20537.8670
20595.3330
20656.2280
20718.6079
20783.1525
20854.2734
20924.2592
20998.5774
21071.2795
21146.8160
21223.2876
21295.5769
21366.3972
21439.4230
21513.4789
21591.9564
21668.7828
21742.1952
21813.4836
21888.7228
21962.8331
22037.6421
22097.0201
22164.3180
22236.9189
22312.2359
22385.7750
22454.6878
22530.7567
22605.3036
22679.9505
22756.7847
22830.3443
22901.4579
22970.9470
23044.7972
23114.3984
23176.8876
23236.3078
23291.7785
23347.4515
23409.6239
